# Blender MTL File: 'low_poly_interior_3.blend'
# Material Count: 1

newmtl low_poly_interior
Ns 323.999994
Ka 1.000000 1.000000 1.000000
Kd 0.800000 0.800000 0.800000
Ks 0.150000 0.150000 0.150000
Ke 0.000000 0.000000 0.000000
Ni 1.450000
d 1.000000
illum 2
map_Kd low_poly_interior.png
